# esa global landcover works

    Code
      .calc_landcover(shp, esalandcover)
    Output
      # A tibble: 55 x 3
         classes               year   area
         <chr>                 <chr> <dbl>
       1 shrubs                2015   506.
       2 shrubs                2016   506.
       3 shrubs                2017   506.
       4 shrubs                2018   506.
       5 shrubs                2019   506.
       6 herbaceous_vegetation 2015  1833.
       7 herbaceous_vegetation 2016  1833.
       8 herbaceous_vegetation 2017  1833.
       9 herbaceous_vegetation 2018  1833.
      10 herbaceous_vegetation 2019  1833.
      # ... with 45 more rows
