# precipitation indicator works

    Code
      .calc_chirpsprec(shp, chirps)
    Output
      [[1]]
      # A tibble: 132 x 4
         dates      absolute anomaly   spi_3
         <date>        <dbl>   <dbl>   <dbl>
       1 2000-01-01      7.5  -2.48   2.42  
       2 2000-02-01     20.2   0.472  0.110 
       3 2000-03-01     24.3 -16.8   -0.723 
       4 2000-04-01     67.2 -34.3   -1.32  
       5 2000-05-01    147.  -48.6   -1.15  
       6 2000-06-01     60.3 -48.4   -1.53  
       7 2000-07-01     63.2 -12.8   -1.10  
       8 2000-08-01    156.   48.8   -0.384 
       9 2000-09-01    139   -11.2    0.221 
      10 2000-10-01    120.  -23.4    0.0887
      # ... with 122 more rows
      

---

    Code
      .calc_chirpsprec(shp, chirps, scales_spi = c(12, 24), spi_prev_years = 12)
    Output
      [[1]]
      # A tibble: 132 x 5
         dates      absolute anomaly spi_12 spi_24
         <date>        <dbl>   <dbl>  <dbl>  <dbl>
       1 2000-01-01      7.5  -2.48   1.44   1.14 
       2 2000-02-01     20.2   0.472  1.42   1.11 
       3 2000-03-01     24.3 -16.8    1.29   1.07 
       4 2000-04-01     67.2 -34.3    1.14   0.933
       5 2000-05-01    147.  -48.6    1.18   0.785
       6 2000-06-01     60.3 -48.4    0.815  0.480
       7 2000-07-01     63.2 -12.8    0.794  0.467
       8 2000-08-01    156.   48.8    0.929  0.611
       9 2000-09-01    139   -11.2    0.727  0.170
      10 2000-10-01    120.  -23.4    0.171  0.197
      # ... with 122 more rows
      

---

    Code
      .calc_chirpsprec(shp, chirps, engine = "extract")
    Output
      [[1]]
      # A tibble: 132 x 4
         dates      absolute anomaly   spi_3
         <date>        <dbl>   <dbl>   <dbl>
       1 2000-01-01      7.5  -2.48   2.42  
       2 2000-02-01     20.2   0.472  0.110 
       3 2000-03-01     24.3 -16.8   -0.723 
       4 2000-04-01     67.2 -34.3   -1.32  
       5 2000-05-01    147.  -48.6   -1.15  
       6 2000-06-01     60.3 -48.4   -1.53  
       7 2000-07-01     63.2 -12.8   -1.10  
       8 2000-08-01    156.   48.8   -0.384 
       9 2000-09-01    139   -11.2    0.221 
      10 2000-10-01    120.  -23.4    0.0887
      # ... with 122 more rows
      

---

    Code
      .calc_chirpsprec(shp, chirps, engine = "exactextract")
    Output
      [[1]]
      # A tibble: 132 x 4
         dates      absolute anomaly   spi_3
         <date>        <dbl>   <dbl>   <dbl>
       1 2000-01-01     7.87  -2.54   2.45  
       2 2000-02-01    20.5    0.514  0.0814
       3 2000-03-01    24.5  -16.9   -0.723 
       4 2000-04-01    67.0  -34.6   -1.32  
       5 2000-05-01   145.   -49.9   -1.18  
       6 2000-06-01    60.9  -50.7   -1.56  
       7 2000-07-01    62.8  -12.4   -1.12  
       8 2000-08-01   152.    46.5   -0.429 
       9 2000-09-01   138.   -11.6    0.201 
      10 2000-10-01   119.   -25.0    0.0563
      # ... with 122 more rows
      

---

    Code
      .calc_chirpsprec(shp, chirps, scales_spi = c(12, 24), spi_prev_years = 3)
    Output
      [[1]]
      # A tibble: 192 x 5
         dates      absolute anomaly  spi_12 spi_24
         <date>        <dbl>   <dbl>   <dbl>  <dbl>
       1 1985-01-01      6.5  -3.48  -0.471  -0.205
       2 1985-02-01     19    -0.694 -0.527  -0.193
       3 1985-03-01     29.8 -11.3   -0.670  -0.410
       4 1985-04-01     86.3 -15.1   -0.523  -0.375
       5 1985-05-01    189.   -6.13  -0.170  -0.551
       6 1985-06-01     44.5 -64.2   -0.949  -0.708
       7 1985-07-01     91    15.0   -0.890  -0.622
       8 1985-08-01    138    31.3   -0.570  -0.431
       9 1985-09-01    191.   40.6   -0.539  -0.230
      10 1985-10-01    179.   36.2   -0.0746 -0.363
      # ... with 182 more rows
