…
For a single asset, we obtain a tibble with 12 rows (for each month in
the queried year 2018). Now, let’s have a look at what happens if we
transform this table to long format, this time specifically requesting
to only extract the `precipitation_wc` indicators:

``` r
portfolio_long(aoi, indicators = "precipitation_wc")
#> Simple feature collection with 108 features and 7 fields
#> Geometry type: POLYGON
#> Dimension:     XY
#> Bounding box:  xmin: -71.80933 ymin: 18.57668 xmax: -71.33201 ymax: 18.69931
#> Geodetic CRS:  WGS 84
#> # A tibble: 108 × 8
#>    assetid traveltime       indicator   datetime            variable unit  value
#>      <int> <list>           <chr>       <dttm>              <chr>    <chr> <dbl>
#>  1       1 <tibble [1 × 4]> precipitat… 2018-01-01 00:00:00 worldcl… mm     21  
#>  2       1 <tibble [1 × 4]> precipitat… 2018-02-01 00:00:00 worldcl… mm     21.3
#>  3       1 <tibble [1 × 4]> precipitat… 2018-03-01 00:00:00 worldcl… mm     61.3
#>  4       1 <tibble [1 × 4]> precipitat… 2018-04-01 00:00:00 worldcl… mm     83.9
#>  5       1 <tibble [1 × 4]> precipitat… 2018-05-01 00:00:00 worldcl… mm    334. 
#>  6       1 <tibble [1 × 4]> precipitat… 2018-06-01 00:00:00 worldcl… mm     49.1
#>  7       1 <tibble [1 × 4]> precipitat… 2018-07-01 00:00:00 worldcl… mm     73.5
#>  8       1 <tibble [1 × 4]> precipitat… 2018-08-01 00:00:00 worldcl… mm    133. 
#>  9       1 <tibble [1 × 4]> precipitat… 2018-09-01 00:00:00 worldcl… mm    210. 
#> 10       1 <tibble [1 × 4]> precipitat… 2018-10-01 00:00:00 worldcl… mm    125. 
#> # ℹ 98 more rows
#> # ℹ 1 more variable: x <POLYGON [°]>
```
…
