Quickstart • mapme.biodiversity
…
The verbose logical controls whether or not the package
will print informative messages during the calculations. Note, that even
if set to FALSE, the package will inform users about any
potential errors or warnings.

Getting the right resources

You can check which indicators are available via the
available_indicators() function:

available_indicators()
#> # A tibble: 25 × 3
#>    name                  description                                   resources
#>    <chr>                 <chr>                                         <list>   
#>  1 biome                 Areal statistics of biomes from TEOW          <tibble> 
#>  2 burned_area           Monthly burned area detected by MODIS satell… <tibble> 
#>  3 deforestation_drivers Areal statistics of deforestation drivers     <tibble> 
#>  4 drought_indicator     Relative wetness statistics based on NASA GR… <tibble> 
#>  5 ecoregion             Areal statstics of ecoregions based on TEOW   <tibble> 
#>  6 elevation             Statistics of elevation based on NASA SRTM    <tibble> 
#>  7 fatalities            Number of fatalities by group of conflict ba… <tibble> 
#>  8 gsw_change            Statistics of the surface water change layer… <tibble> 
#>  9 gsw_occurrence        Areal statistic of surface water based on oc… <tibble> 
#> 10 gsw_recurrence        Areal statistic of surface water based on re… <tibble> 
#> # ℹ 15 more rows
…
By inspecting the help page we learned that this indicator requires
the gfw_treecover and gfw_lossyear resources
and it requires to specify three extra arguments: the years for which to
calculate treecover, the minimum size of patches to be considered as
forest and the minimum canopy coverage of a single pixel to be
considered as forested.

With that information at hand, we can start to retrieve the required
resource. We can learn about all available resources using the
available_resources() function:

available_resources()
#> # A tibble: 23 × 5
#>    name                             description             licence source type 
#>    <chr>                            <chr>                   <chr>   <chr>  <chr>
#>  1 chirps                           Climate Hazards Group … CC - u… https… rast…
#>  2 esalandcover                     Copernicus Land Monito… CC-BY … https… rast…
#>  3 fritz_et_al                      Drivers of deforestati… CC-BY … https… rast…
#>  4 gfw_emissions                    Global Forest Watch - … CC-BY … https… rast…
#>  5 gfw_lossyear                     Global Forest Watch - … CC-BY … https… rast…
#>  6 gfw_treecover                    Global Forest Watch - … CC-BY … https… rast…
#>  7 global_surface_water_change      Global Surface Water -… https:… https… rast…
#>  8 global_surface_water_occurrence  Global Surface Water -… https:… https… rast…
#>  9 global_surface_water_recurrence  Global Surface Water -… https:… https… rast…
#> 10 global_surface_water_seasonality Global Surface Water -… https:… https… rast…
#> # ℹ 13 more rows
…
The indicator is represented as a nested-list column in our
sf-object that is named alike the requested indicator. For
our single asset, this column contains a tibble with 6 rows and four
columns. Let’s have a closer look at this object

aoi$treecover_area
#> [[1]]
#> # A tibble: 24 × 4
#>    datetime            variable  unit  value
#>    <dttm>              <chr>     <chr> <dbl>
#>  1 2000-01-01 00:00:00 treecover ha    1975.
#>  2 2001-01-01 00:00:00 treecover ha    1975.
#>  3 2002-01-01 00:00:00 treecover ha    1973.
#>  4 2003-01-01 00:00:00 treecover ha    1940.
#>  5 2004-01-01 00:00:00 treecover ha    1930.
#>  6 2005-01-01 00:00:00 treecover ha    1926.
#>  7 2006-01-01 00:00:00 treecover ha    1919.
#>  8 2007-01-01 00:00:00 treecover ha    1908.
#>  9 2008-01-01 00:00:00 treecover ha    1905.
#> 10 2009-01-01 00:00:00 treecover ha    1903.
#> # ℹ 14 more rows
…
If you wish to change the layout of an portfolio, you can use
portfolio_long() and portfolio_wide() (see the
respective online
tutorial). Especially for large portfolios, it is usually a good
idea to keep the geometry information in a separated variable to keep
the size of the data object relatively small.

geoms <- st_geometry(aoi)
portfolio_long(aoi, drop_geoms = TRUE)
#> # A tibble: 24 × 6
#>    assetid indicator      datetime            variable  unit  value
#>      <int> <chr>          <dttm>              <chr>     <chr> <dbl>
#>  1       1 treecover_area 2000-01-01 00:00:00 treecover ha    1975.
#>  2       1 treecover_area 2001-01-01 00:00:00 treecover ha    1975.
#>  3       1 treecover_area 2002-01-01 00:00:00 treecover ha    1973.
#>  4       1 treecover_area 2003-01-01 00:00:00 treecover ha    1940.
#>  5       1 treecover_area 2004-01-01 00:00:00 treecover ha    1930.
#>  6       1 treecover_area 2005-01-01 00:00:00 treecover ha    1926.
#>  7       1 treecover_area 2006-01-01 00:00:00 treecover ha    1919.
#>  8       1 treecover_area 2007-01-01 00:00:00 treecover ha    1908.
#>  9       1 treecover_area 2008-01-01 00:00:00 treecover ha    1905.
#> 10       1 treecover_area 2009-01-01 00:00:00 treecover ha    1903.
#> # ℹ 14 more rows
…
