…
aoi
#> Simple feature collection with 40 features and 8 fields
#> Geometry type: POLYGON
#> Dimension:     XY
#> Bounding box:  xmin: -71.80933 ymin: 18.57668 xmax: -71.33201 ymax: 18.69931
#> Geodetic CRS:  WGS 84
#> # A tibble: 40 × 9
#>    WDPAID ISO3  assetid indicator       datetime            variable unit  value
#>     <dbl> <chr>   <int> <chr>           <dttm>              <chr>    <chr> <dbl>
#>  1 478140 DOM         1 drought_indica… 2022-01-03 00:00:00 wetness… perc…  57.5
#>  2 478140 DOM         1 drought_indica… 2022-01-03 00:00:00 wetness… perc…  57.5
#>  3 478140 DOM         1 drought_indica… 2022-01-10 00:00:00 wetness… perc…  55.5
#>  4 478140 DOM         1 drought_indica… 2022-01-10 00:00:00 wetness… perc…  55.5
#>  5 478140 DOM         1 drought_indica… 2022-01-17 00:00:00 wetness… perc…  54  
#>  6 478140 DOM         1 drought_indica… 2022-01-17 00:00:00 wetness… perc…  54  
#>  7 478140 DOM         1 drought_indica… 2022-01-24 00:00:00 wetness… perc…  53  
#>  8 478140 DOM         1 drought_indica… 2022-01-24 00:00:00 wetness… perc…  53  
#>  9 478140 DOM         1 drought_indica… 2022-01-31 00:00:00 wetness… perc…  43.5
#> 10 478140 DOM         1 drought_indica… 2022-01-31 00:00:00 wetness… perc…  43.5
#> # ℹ 30 more rows
#> # ℹ 1 more variable: geom <POLYGON [°]>
…
