…
## Examples

``` r
# \dontrun{
register_indicator(
  name = "treecover_area",
  description = "Area of forest cover by year",
  resources = c(
    "gfw_treecover",
    "gfw_lossyear"
  )
)
# }
available_indicators()
#> # A tibble: 41 × 3
#>    name                          description                           resources
#>    <chr>                         <chr>                                 <list>   
#>  1 biodiversity_intactness_index Averaged biodiversity intactness ind… <tibble> 
#>  2 biome                         Areal statistics of biomes from TEOW  <tibble> 
#>  3 burned_area                   Monthly burned area detected by MODI… <tibble> 
#>  4 deforestation_drivers         Areal statistics of deforestation dr… <tibble> 
#>  5 drought_indicator             Relative wetness statistics based on… <tibble> 
#>  6 ecoregion                     Areal statistics of ecoregions based… <tibble> 
#>  7 elevation                     Statistics of elevation based on NAS… <tibble> 
#>  8 exposed_population_acled      Number of people exposed to conflict… <tibble> 
#>  9 exposed_population_ucdp       Number of people exposed to conflict… <tibble> 
#> 10 fatalities_acled              Number of fatalities by event type b… <tibble> 
#> # ℹ 31 more rows
```
