…
aoi
#> Simple feature collection with 22 features and 8 fields
#> Geometry type: POLYGON
#> Dimension:     XY
#> Bounding box:  xmin: -71.80933 ymin: 18.57668 xmax: -71.33201 ymax: 18.69931
#> Geodetic CRS:  WGS 84
#> # A tibble: 22 × 9
#>    WDPAID ISO3  assetid indicator      datetime            variable unit   value
#>     <dbl> <chr>   <int> <chr>          <dttm>              <chr>    <chr>  <dbl>
#>  1 478140 DOM         1 population_co… 2010-01-01 00:00:00 populat… count 4016. 
#>  2 478140 DOM         1 population_co… 2010-01-01 00:00:00 populat… count   15.5
#>  3 478140 DOM         1 population_co… 2011-01-01 00:00:00 populat… count 3991. 
#>  4 478140 DOM         1 population_co… 2011-01-01 00:00:00 populat… count   13.8
#>  5 478140 DOM         1 population_co… 2012-01-01 00:00:00 populat… count 4068. 
#>  6 478140 DOM         1 population_co… 2012-01-01 00:00:00 populat… count   15.8
#>  7 478140 DOM         1 population_co… 2013-01-01 00:00:00 populat… count 3958. 
#>  8 478140 DOM         1 population_co… 2013-01-01 00:00:00 populat… count   15.2
#>  9 478140 DOM         1 population_co… 2014-01-01 00:00:00 populat… count 3981. 
#> 10 478140 DOM         1 population_co… 2014-01-01 00:00:00 populat… count   15.3
#> # ℹ 12 more rows
#> # ℹ 1 more variable: geom <POLYGON [°]>
…
