Calculate number of fatalities of violent conflict from UCDP GED — fatalities • mapme.biodiversity
…
aoi
#> Simple feature collection with 216 features and 7 fields
#> Geometry type: POLYGON
#> Dimension:     XY
#> Bounding box:  xmin: 29.02493 ymin: -4.499983 xmax: 30.75226 ymax: -2.348487
#> Geodetic CRS:  +proj=longlat +datum=WGS84 +no_defs
#> # A tibble: 216 × 8
#>    sov_a3 assetid indicator  datetime   variable                     unit  value
#>    <chr>    <int> <chr>      <date>     <chr>                        <chr> <dbl>
#>  1 BDI          1 fatalities 1991-01-01 state_based_conflict_deaths… count     0
#>  2 BDI          1 fatalities 1991-01-01 state_based_conflict_deaths… count     0
#>  3 BDI          1 fatalities 1991-01-01 state_based_conflict_deaths… count     0
#>  4 BDI          1 fatalities 1991-01-01 non_state_conflict_deaths_c… count     0
#>  5 BDI          1 fatalities 1991-01-01 non_state_conflict_deaths_u… count     0
#>  6 BDI          1 fatalities 1991-01-01 non_state_conflict_deaths_t… count     0
#>  7 BDI          1 fatalities 1991-01-01 one_sided_violence_deaths_c… count     0
#>  8 BDI          1 fatalities 1991-01-01 one_sided_violence_deaths_u… count     0
#>  9 BDI          1 fatalities 1991-01-01 one_sided_violence_deaths_t… count     0
#> 10 BDI          1 fatalities 1991-02-01 state_based_conflict_deaths… count     0
#> # ℹ 206 more rows
#> # ℹ 1 more variable: geom <POLYGON [°]>
…
