Register or list resources in mapme.biodiversity — resources • mapme.biodiversity
…
available_resources() returns a tibble listing available resources.

    Examples

# \dontrun{
register_resource(
  name = "gfw_treecover",
  description = "Global Forest Watch - Percentage of canopy closure in 2000",
  licence = "CC-BY 4.0",
  source = "https://data.globalforestwatch.org/documents/tree-cover-2000/explore",
  type = "raster"
)
# }
available_resources()
#> # A tibble: 31 × 5
#>    name                            description              licence source type 
#>    <chr>                           <chr>                    <chr>   <chr>  <chr>
#>  1 chelsa                          Climatologies at High r… Unknow… https… rast…
#>  2 chirps                          Climate Hazards Group I… CC - u… https… rast…
#>  3 esalandcover                    Copernicus Land Monitor… CC-BY … https… rast…
#>  4 fritz_et_al                     Drivers of deforestatio… CC-BY … https… rast…
#>  5 gfw_emissions                   Global Forest Watch - C… CC-BY … https… rast…
#>  6 gfw_lossyear                    Global Forest Watch - Y… CC-BY … https… rast…
#>  7 gfw_treecover                   Global Forest Watch - P… CC-BY … https… rast…
#>  8 gfw_treecover                   Global Forest Watch - P… CC-BY … https… rast…
#>  9 global_surface_water_change     Global Surface Water - … https:… https… rast…
#> 10 global_surface_water_occurrence Global Surface Water - … https:… https… rast…
#> # ℹ 21 more rows
…
