…
aoi
#> Simple feature collection with 24 features and 8 fields
#> Geometry type: POLYGON
#> Dimension:     XY
#> Bounding box:  xmin: -71.80933 ymin: 18.57668 xmax: -71.33201 ymax: 18.69931
#> Geodetic CRS:  WGS 84
#> # A tibble: 24 × 9
#>    WDPAID ISO3  assetid indicator       datetime            variable unit  value
#>     <dbl> <chr>   <int> <chr>           <dttm>              <chr>    <chr> <dbl>
#>  1 478140 DOM         1 temperature_mi… 2018-01-01 00:00:00 worldcl… C      9.25
#>  2 478140 DOM         1 temperature_mi… 2018-01-01 00:00:00 worldcl… C      9   
#>  3 478140 DOM         1 temperature_mi… 2018-02-01 00:00:00 worldcl… C      9.12
#>  4 478140 DOM         1 temperature_mi… 2018-02-01 00:00:00 worldcl… C      9   
#>  5 478140 DOM         1 temperature_mi… 2018-03-01 00:00:00 worldcl… C     10.1 
#>  6 478140 DOM         1 temperature_mi… 2018-03-01 00:00:00 worldcl… C     10   
#>  7 478140 DOM         1 temperature_mi… 2018-04-01 00:00:00 worldcl… C     11.2 
#>  8 478140 DOM         1 temperature_mi… 2018-04-01 00:00:00 worldcl… C     11   
#>  9 478140 DOM         1 temperature_mi… 2018-05-01 00:00:00 worldcl… C     12.2 
#> 10 478140 DOM         1 temperature_mi… 2018-05-01 00:00:00 worldcl… C     12   
#> # ℹ 14 more rows
#> # ℹ 1 more variable: geom <POLYGON [°]>
…
