How To: Transform indicator output to wide-format • mapme.biodiversity
…
For a single asset, we obtain a tibble with 12 rows (for each month
in the queried year 2018). Now, if we just simply unnest this indicator
column observe what happens to the shape of the output:

port_wide_2 <- tidyr::unnest(port_w_prec, precipitation_wc)
print(port_wide_2)
#> Simple feature collection with 108 features and 3 fields
#> Geometry type: POLYGON
#> Dimension:     XY
#> Bounding box:  xmin: -71.80933 ymin: 18.57668 xmax: -71.33201 ymax: 18.69931
#> Geodetic CRS:  WGS 84
#> # A tibble: 108 × 4
#>    assetid prec_mean date                                                      x
#>      <int>     <dbl> <date>                                        <POLYGON [°]>
#>  1       1      21.1 2018-01-01 ((-71.80933 18.57668, -71.65022 18.57668, -71.6…
#>  2       1      21.4 2018-02-01 ((-71.80933 18.57668, -71.65022 18.57668, -71.6…
#>  3       1      61.4 2018-03-01 ((-71.80933 18.57668, -71.65022 18.57668, -71.6…
#>  4       1      83.6 2018-04-01 ((-71.80933 18.57668, -71.65022 18.57668, -71.6…
#>  5       1     331.  2018-05-01 ((-71.80933 18.57668, -71.65022 18.57668, -71.6…
#>  6       1      60.3 2018-06-01 ((-71.80933 18.57668, -71.65022 18.57668, -71.6…
#>  7       1      74.0 2018-07-01 ((-71.80933 18.57668, -71.65022 18.57668, -71.6…
#>  8       1      94.0 2018-08-01 ((-71.80933 18.57668, -71.65022 18.57668, -71.6…
#>  9       1     207.  2018-09-01 ((-71.80933 18.57668, -71.65022 18.57668, -71.6…
#> 10       1     126.  2018-10-01 ((-71.80933 18.57668, -71.65022 18.57668, -71.6…
#> # ℹ 98 more rows
…
