…
The `verbose` logical controls whether or not the package will print
informative messages during the calculations. Note, that even if set to
`FALSE`, the package will inform users about any potential errors or
warnings.

## Getting the right resources

You can check which indicators are available via the
[`available_indicators()`](https://mapme-initiative.github.io/mapme.biodiversity/reference/indicators.md)
function:

``` r

available_indicators()
#> # A tibble: 40 × 3
#>    name                          description                           resources
#>    <chr>                         <chr>                                 <list>   
#>  1 biodiversity_intactness_index Averaged biodiversity intactness ind… <tibble> 
#>  2 biome                         Areal statistics of biomes from TEOW  <tibble> 
#>  3 burned_area                   Monthly burned area detected by MODI… <tibble> 
#>  4 deforestation_drivers         Areal statistics of deforestation dr… <tibble> 
#>  5 drought_indicator             Relative wetness statistics based on… <tibble> 
#>  6 ecoregion                     Areal statistics of ecoregions based… <tibble> 
#>  7 elevation                     Statistics of elevation based on NAS… <tibble> 
#>  8 exposed_population_acled      Number of people exposed to conflict… <tibble> 
#>  9 exposed_population_ucdp       Number of people exposed to conflict… <tibble> 
#> 10 fatalities_acled              Number of fatalities by event type b… <tibble> 
#> # ℹ 30 more rows
…
By inspecting the help page we learned that this indicator requires the
`gfw_treecover` and `gfw_lossyear` resources and it requires to specify
three extra arguments: the years for which to calculate treecover, the
minimum size of patches to be considered as forest and the minimum
canopy coverage of a single pixel to be considered as forested.

With that information at hand, we can start to retrieve the required
resource. We can learn about all available resources using the
[`available_resources()`](https://mapme-initiative.github.io/mapme.biodiversity/reference/resources.md)
function:

``` r

available_resources()
#> # A tibble: 35 × 5
#>    name                          description                licence source type 
#>    <chr>                         <chr>                      <chr>   <chr>  <chr>
#>  1 accessibility_2000            Accessibility data for th… See JR… https… rast…
#>  2 acled                         Armed Conflict Location &… Visit … Visit… vect…
#>  3 biodiversity_intactness_index Biodiversity Intactness I… CC-BY-… https… rast…
#>  4 chelsa                        Climatologies at High res… Unknow… https… rast…
#>  5 chirps                        Climate Hazards Group Inf… CC - u… https… rast…
#>  6 esalandcover                  Copernicus Land Monitorin… CC-BY … https… rast…
#>  7 fritz_et_al                   Drivers of deforestation … CC-BY … https… rast…
#>  8 gfw_emissions                 Global Forest Watch - CO2… CC-BY … https… rast…
#>  9 gfw_lossyear                  Global Forest Watch - Yea… CC-BY … https… rast…
#> 10 gfw_treecover                 Global Forest Watch - Per… CC-BY … https… rast…
#> # ℹ 25 more rows
…
The indicator is represented as a nested-list column in our `sf`-object
that is named alike the requested indicator. For our single asset, this
column contains a tibble with 24 rows and four columns. Let’s have a
closer look at this object

``` r

aoi$treecover_area
#> [[1]]
#> # A tibble: 24 × 4
#>    datetime            variable  unit  value
#>    <dttm>              <chr>     <chr> <dbl>
#>  1 2000-01-01 00:00:00 treecover ha    1976.
#>  2 2001-01-01 00:00:00 treecover ha    1976.
#>  3 2002-01-01 00:00:00 treecover ha    1974.
#>  4 2003-01-01 00:00:00 treecover ha    1941.
#>  5 2004-01-01 00:00:00 treecover ha    1931.
#>  6 2005-01-01 00:00:00 treecover ha    1927.
#>  7 2006-01-01 00:00:00 treecover ha    1920.
#>  8 2007-01-01 00:00:00 treecover ha    1909.
#>  9 2008-01-01 00:00:00 treecover ha    1906.
#> 10 2009-01-01 00:00:00 treecover ha    1904.
#> # ℹ 14 more rows
```
…
If you wish to change the layout of an portfolio, you can use
[`portfolio_long()`](https://mapme-initiative.github.io/mapme.biodiversity/reference/portfolio.md)
and
[`portfolio_wide()`](https://mapme-initiative.github.io/mapme.biodiversity/reference/portfolio.md)
(see the respective [online
tutorial](https://mapme-initiative.github.io/mapme.biodiversity/articles/output-wide.html)).
Especially for large portfolios, it is usually a good idea to keep the
geometry information in a separated variable to keep the size of the
data object relatively small.

``` r

geoms <- st_geometry(aoi)
portfolio_long(aoi, drop_geoms = TRUE)
#> # A tibble: 24 × 6
#>    assetid indicator      datetime            variable  unit  value
#>      <int> <chr>          <dttm>              <chr>     <chr> <dbl>
#>  1       1 treecover_area 2000-01-01 00:00:00 treecover ha    1976.
#>  2       1 treecover_area 2001-01-01 00:00:00 treecover ha    1976.
#>  3       1 treecover_area 2002-01-01 00:00:00 treecover ha    1974.
#>  4       1 treecover_area 2003-01-01 00:00:00 treecover ha    1941.
#>  5       1 treecover_area 2004-01-01 00:00:00 treecover ha    1931.
#>  6       1 treecover_area 2005-01-01 00:00:00 treecover ha    1927.
#>  7       1 treecover_area 2006-01-01 00:00:00 treecover ha    1920.
#>  8       1 treecover_area 2007-01-01 00:00:00 treecover ha    1909.
#>  9       1 treecover_area 2008-01-01 00:00:00 treecover ha    1906.
#> 10       1 treecover_area 2009-01-01 00:00:00 treecover ha    1904.
#> # ℹ 14 more rows
```
…
