Quickstart • mapme.biodiversity
…
The verbose logical controls whether or not the package
will print informative messages during the calculations. Note, that even
if set to FALSE, the package will inform users about any
potential errors or warnings.

Getting the right resources

You can check which indicators are available via the
available_indicators() function:

available_indicators()
#> # A tibble: 26 × 3
#>    name                   description                                  resources
#>    <chr>                  <chr>                                        <list>   
#>  1 active_fire_counts     Number of detected fires by NASA FIRMS       <tibble> 
#>  2 active_fire_properties Extraction of properties of fires detected … <tibble> 
#>  3 biome                  Areal statistics of biomes from TEOW         <tibble> 
#>  4 deforestation_drivers  Areal statistics of deforestation drivers    <tibble> 
#>  5 drought_indicator      Relative wetness statistics based on NASA G… <tibble> 
#>  6 ecoregion              Areal statstics of ecoregions based on TEOW  <tibble> 
#>  7 elevation              Statistics of elevation based on NASA SRTM   <tibble> 
#>  8 fatalities             Number of fatalities by group of conflict b… <tibble> 
#>  9 gsw_change             Statistics of the surface water change laye… <tibble> 
#> 10 gsw_occurrence         Areal statistic of surface water based on o… <tibble> 
#> # ℹ 16 more rows
…
?population_count
help(population_count)

By inspecting the help page we learned that this indicator requires
the worldpop resource and it requires to specify two extra
arguments: the population statistic to calculate and the eninge to be
used for the calculation (learn more about engines here).

With that information at hand, we can start to retrieve the required
resource. We can learn about all available resources using the
available_resources() function:

available_resources()
#> # A tibble: 23 × 5
#>    name                             description             licence source type 
#>    <chr>                            <chr>                   <chr>   <chr>  <chr>
#>  1 chirps                           Climate Hazards Group … CC - u… https… rast…
#>  2 esalandcover                     Copernicus Land Monito… CC-BY … https… rast…
#>  3 fritz_et_al                      Drivers of deforestati… CC-BY … https… rast…
#>  4 gfw_emissions                    Global Forest Watch - … CC-BY … https… rast…
#>  5 gfw_lossyear                     Global Forest Watch - … CC-BY … https… rast…
#>  6 gfw_treecover                    Global Forest Watch - … CC-BY … https… rast…
#>  7 global_surface_water_change      Global Surface Water -… https:… https… rast…
#>  8 global_surface_water_occurrence  Global Surface Water -… https:… https… rast…
#>  9 global_surface_water_recurrence  Global Surface Water -… https:… https… rast…
#> 10 global_surface_water_seasonality Global Surface Water -… https:… https… rast…
#> # ℹ 13 more rows
…
Now let’s take a look at the results. We will select only some of the
metadata and the output indicator column to get a clearer picture of
what has happened.

(aoi_gridded <- aoi_gridded %>% select(assetid, population_count))
#> Simple feature collection with 23 features and 2 fields
#> Geometry type: POLYGON
#> Dimension:     XY
#> Bounding box:  xmin: -71.80731 ymin: 18.58134 xmax: -71.33268 ymax: 18.69799
#> Geodetic CRS:  WGS 84
#> # A tibble: 23 × 3
#>    assetid population_count                                                 geom
#>      <int> <list>                                                  <POLYGON [°]>
#>  1       1 <tibble [6 × 2]> ((-71.78358 18.65871, -71.78358 18.67725, -71.79993…
#>  2       2 <tibble [6 × 2]> ((-71.79993 18.6867, -71.78358 18.67725, -71.75984 …
#>  3       3 <tibble [6 × 2]> ((-71.76202 18.66333, -71.74668 18.64602, -71.74431…
#>  4       4 <tibble [6 × 2]> ((-71.71238 18.62893, -71.71238 18.63615, -71.73611…
#>  5       5 <tibble [6 × 2]> ((-71.75984 18.69367, -71.75984 18.69095, -71.73611…
#>  6       6 <tibble [6 × 2]> ((-71.71429 18.68985, -71.73611 18.67725, -71.73611…
#>  7       7 <tibble [6 × 2]> ((-71.66702 18.63736, -71.68865 18.64985, -71.71238…
#>  8       8 <tibble [6 × 2]> ((-71.70975 18.68944, -71.68865 18.67725, -71.67141…
#>  9       9 <tibble [6 × 2]> ((-71.67141 18.68721, -71.68865 18.67725, -71.68865…
#> 10      10 <tibble [6 × 2]> ((-71.64095 18.64971, -71.64119 18.64985, -71.64178…
#> # ℹ 13 more rows
…
If you wish to conduct your statistical analysis in R, you can use
tidyr functionality to unnest one or multiple columns.
Especially for large portfolios, it is usually a good idea to keep the
geometry information in a separated variable to keep the size of the
data object relatively small.

geometries <- select(aoi_gridded, assetid)
aoi_gridded %>%
  st_drop_geometry() %>%
  tidyr::unnest(population_count)
#> # A tibble: 138 × 3
#>    assetid population_count_sum year 
#>      <int>                <dbl> <chr>
#>  1       1                 305. 2010 
#>  2       1                 313. 2011 
#>  3       1                 324. 2012 
#>  4       1                 321. 2013 
#>  5       1                 286. 2014 
#>  6       1                 330. 2015 
#>  7       2                 217. 2010 
#>  8       2                 218. 2011 
#>  9       2                 224. 2012 
#> 10       2                 241. 2013 
#> # ℹ 128 more rows
…
